EESchema Schematic File Version 4
LIBS:Sequencer-cache
EELAYER 26 0
EELAYER END
$Descr A4 11693 8268
encoding utf-8
Sheet 1 1
Title ""
Date ""
Rev ""
Comp ""
Comment1 ""
Comment2 ""
Comment3 ""
Comment4 ""
$EndDescr
$Comp
L MCU_Microchip_ATmega:ATmega328-PU U2
U 1 1 5C4401AA
P 2850 2700
F 0 "U2" H 2209 2746 50  0000 R CNN
F 1 "ATmega328-PU" H 2209 2655 50  0000 R CNN
F 2 "Package_DIP:DIP-28_W7.62mm" H 2850 2700 50  0001 C CIN
F 3 "http://ww1.microchip.com/downloads/en/DeviceDoc/ATmega328_P%20AVR%20MCU%20with%20picoPower%20Technology%20Data%20Sheet%2040001984A.pdf" H 2850 2700 50  0001 C CNN
	1    2850 2700
	1    0    0    -1  
$EndComp
$Comp
L Regulator_Linear:L7805 U1
U 1 1 5C440327
P 1700 950
F 0 "U1" H 1700 1192 50  0000 C CNN
F 1 "L7805" H 1700 1101 50  0000 C CNN
F 2 "Package_TO_SOT_THT:TO-220-3_Horizontal_TabDown" H 1725 800 50  0001 L CIN
F 3 "http://www.st.com/content/ccc/resource/technical/document/datasheet/41/4f/b3/b0/12/d4/47/88/CD00000444.pdf/files/CD00000444.pdf/jcr:content/translations/en.CD00000444.pdf" H 1700 900 50  0001 C CNN
	1    1700 950 
	1    0    0    -1  
$EndComp
Wire Wire Line
	2850 950  2850 1200
$Comp
L Sequencer-rescue:MAX7219-MAX7219 U3
U 1 1 5C4408E7
P 9200 1500
F 0 "U3" H 9200 2326 50  0000 C CNN
F 1 "MAX7219" H 9200 1500 50  0001 L BNN
F 2 "Package_DIP:DIP-24_W7.62mm_Socket" H 9200 1500 50  0001 C CNN
F 3 "None" H 9200 1500 50  0001 L BNN
F 4 "MAX7219" H 9200 1500 50  0001 L BNN "Field4"
F 5 "" H 9200 1500 50  0001 L BNN "Field5"
F 6 "None" H 9200 1500 50  0001 L BNN "Field6"
F 7 "Maxim Integrated" H 9200 1500 50  0001 L BNN "Field7"
F 8 "Unavailable" H 9200 1500 50  0001 L BNN "Field8"
	1    9200 1500
	1    0    0    -1  
$EndComp
$Comp
L Device:LED D12
U 1 1 5C440BAC
P 7450 3900
F 0 "D12" V 7488 3783 50  0000 R CNN
F 1 "LED" V 7397 3783 50  0000 R CNN
F 2 "LED_THT:LED_D3.0mm" H 7450 3900 50  0001 C CNN
F 3 "~" H 7450 3900 50  0001 C CNN
	1    7450 3900
	0    -1   -1   0   
$EndComp
$Comp
L Device:LED D17
U 1 1 5C4410AD
P 7850 3900
F 0 "D17" V 7888 3783 50  0000 R CNN
F 1 "LED" V 7797 3783 50  0000 R CNN
F 2 "LED_THT:LED_D3.0mm" H 7850 3900 50  0001 C CNN
F 3 "~" H 7850 3900 50  0001 C CNN
	1    7850 3900
	0    -1   -1   0   
$EndComp
$Comp
L Device:LED D22
U 1 1 5C44143D
P 8200 3900
F 0 "D22" V 8238 3783 50  0000 R CNN
F 1 "LED" V 8147 3783 50  0000 R CNN
F 2 "LED_THT:LED_D3.0mm" H 8200 3900 50  0001 C CNN
F 3 "~" H 8200 3900 50  0001 C CNN
	1    8200 3900
	0    -1   -1   0   
$EndComp
$Comp
L Device:LED D27
U 1 1 5C441444
P 8600 3900
F 0 "D27" V 8638 3783 50  0000 R CNN
F 1 "LED" V 8547 3783 50  0000 R CNN
F 2 "LED_THT:LED_D3.0mm" H 8600 3900 50  0001 C CNN
F 3 "~" H 8600 3900 50  0001 C CNN
	1    8600 3900
	0    -1   -1   0   
$EndComp
$Comp
L Device:LED D32
U 1 1 5C441556
P 8950 3900
F 0 "D32" V 8988 3783 50  0000 R CNN
F 1 "LED" V 8897 3783 50  0000 R CNN
F 2 "LED_THT:LED_D3.0mm" H 8950 3900 50  0001 C CNN
F 3 "~" H 8950 3900 50  0001 C CNN
	1    8950 3900
	0    -1   -1   0   
$EndComp
$Comp
L Device:LED D37
U 1 1 5C44155D
P 9350 3900
F 0 "D37" V 9388 3783 50  0000 R CNN
F 1 "LED" V 9297 3783 50  0000 R CNN
F 2 "LED_THT:LED_D3.0mm" H 9350 3900 50  0001 C CNN
F 3 "~" H 9350 3900 50  0001 C CNN
	1    9350 3900
	0    -1   -1   0   
$EndComp
$Comp
L Device:LED D2
U 1 1 5C44163D
P 6750 3900
F 0 "D2" V 6788 3783 50  0000 R CNN
F 1 "LED" V 6697 3783 50  0000 R CNN
F 2 "LED_THT:LED_D3.0mm" H 6750 3900 50  0001 C CNN
F 3 "~" H 6750 3900 50  0001 C CNN
	1    6750 3900
	0    -1   -1   0   
$EndComp
$Comp
L Device:LED D7
U 1 1 5C441644
P 7150 3900
F 0 "D7" V 7188 3783 50  0000 R CNN
F 1 "LED" V 7097 3783 50  0000 R CNN
F 2 "LED_THT:LED_D3.0mm" H 7150 3900 50  0001 C CNN
F 3 "~" H 7150 3900 50  0001 C CNN
	1    7150 3900
	0    -1   -1   0   
$EndComp
$Comp
L Device:LED D13
U 1 1 5C441805
P 7450 4300
F 0 "D13" V 7488 4183 50  0000 R CNN
F 1 "LED" V 7397 4183 50  0000 R CNN
F 2 "LED_THT:LED_D3.0mm" H 7450 4300 50  0001 C CNN
F 3 "~" H 7450 4300 50  0001 C CNN
	1    7450 4300
	0    -1   -1   0   
$EndComp
$Comp
L Device:LED D18
U 1 1 5C44180C
P 7850 4300
F 0 "D18" V 7888 4183 50  0000 R CNN
F 1 "LED" V 7797 4183 50  0000 R CNN
F 2 "LED_THT:LED_D3.0mm" H 7850 4300 50  0001 C CNN
F 3 "~" H 7850 4300 50  0001 C CNN
	1    7850 4300
	0    -1   -1   0   
$EndComp
$Comp
L Device:LED D23
U 1 1 5C441813
P 8200 4300
F 0 "D23" V 8238 4183 50  0000 R CNN
F 1 "LED" V 8147 4183 50  0000 R CNN
F 2 "LED_THT:LED_D3.0mm" H 8200 4300 50  0001 C CNN
F 3 "~" H 8200 4300 50  0001 C CNN
	1    8200 4300
	0    -1   -1   0   
$EndComp
$Comp
L Device:LED D28
U 1 1 5C44181A
P 8600 4300
F 0 "D28" V 8638 4183 50  0000 R CNN
F 1 "LED" V 8547 4183 50  0000 R CNN
F 2 "LED_THT:LED_D3.0mm" H 8600 4300 50  0001 C CNN
F 3 "~" H 8600 4300 50  0001 C CNN
	1    8600 4300
	0    -1   -1   0   
$EndComp
$Comp
L Device:LED D33
U 1 1 5C441821
P 8950 4300
F 0 "D33" V 8988 4183 50  0000 R CNN
F 1 "LED" V 8897 4183 50  0000 R CNN
F 2 "LED_THT:LED_D3.0mm" H 8950 4300 50  0001 C CNN
F 3 "~" H 8950 4300 50  0001 C CNN
	1    8950 4300
	0    -1   -1   0   
$EndComp
$Comp
L Device:LED D38
U 1 1 5C441828
P 9350 4300
F 0 "D38" V 9388 4183 50  0000 R CNN
F 1 "LED" V 9297 4183 50  0000 R CNN
F 2 "LED_THT:LED_D3.0mm" H 9350 4300 50  0001 C CNN
F 3 "~" H 9350 4300 50  0001 C CNN
	1    9350 4300
	0    -1   -1   0   
$EndComp
$Comp
L Device:LED D3
U 1 1 5C44182F
P 6750 4300
F 0 "D3" V 6788 4183 50  0000 R CNN
F 1 "LED" V 6697 4183 50  0000 R CNN
F 2 "LED_THT:LED_D3.0mm" H 6750 4300 50  0001 C CNN
F 3 "~" H 6750 4300 50  0001 C CNN
	1    6750 4300
	0    -1   -1   0   
$EndComp
$Comp
L Device:LED D8
U 1 1 5C441836
P 7150 4300
F 0 "D8" V 7188 4183 50  0000 R CNN
F 1 "LED" V 7097 4183 50  0000 R CNN
F 2 "LED_THT:LED_D3.0mm" H 7150 4300 50  0001 C CNN
F 3 "~" H 7150 4300 50  0001 C CNN
	1    7150 4300
	0    -1   -1   0   
$EndComp
$Comp
L Device:LED D14
U 1 1 5C44198C
P 7450 4700
F 0 "D14" V 7488 4583 50  0000 R CNN
F 1 "LED" V 7397 4583 50  0000 R CNN
F 2 "LED_THT:LED_D3.0mm" H 7450 4700 50  0001 C CNN
F 3 "~" H 7450 4700 50  0001 C CNN
	1    7450 4700
	0    -1   -1   0   
$EndComp
$Comp
L Device:LED D19
U 1 1 5C441993
P 7850 4700
F 0 "D19" V 7888 4583 50  0000 R CNN
F 1 "LED" V 7797 4583 50  0000 R CNN
F 2 "LED_THT:LED_D3.0mm" H 7850 4700 50  0001 C CNN
F 3 "~" H 7850 4700 50  0001 C CNN
	1    7850 4700
	0    -1   -1   0   
$EndComp
$Comp
L Device:LED D24
U 1 1 5C44199A
P 8200 4700
F 0 "D24" V 8238 4583 50  0000 R CNN
F 1 "LED" V 8147 4583 50  0000 R CNN
F 2 "LED_THT:LED_D3.0mm" H 8200 4700 50  0001 C CNN
F 3 "~" H 8200 4700 50  0001 C CNN
	1    8200 4700
	0    -1   -1   0   
$EndComp
$Comp
L Device:LED D29
U 1 1 5C4419A1
P 8600 4700
F 0 "D29" V 8638 4583 50  0000 R CNN
F 1 "LED" V 8547 4583 50  0000 R CNN
F 2 "LED_THT:LED_D3.0mm" H 8600 4700 50  0001 C CNN
F 3 "~" H 8600 4700 50  0001 C CNN
	1    8600 4700
	0    -1   -1   0   
$EndComp
$Comp
L Device:LED D34
U 1 1 5C4419A8
P 8950 4700
F 0 "D34" V 8988 4583 50  0000 R CNN
F 1 "LED" V 8897 4583 50  0000 R CNN
F 2 "LED_THT:LED_D3.0mm" H 8950 4700 50  0001 C CNN
F 3 "~" H 8950 4700 50  0001 C CNN
	1    8950 4700
	0    -1   -1   0   
$EndComp
$Comp
L Device:LED D39
U 1 1 5C4419AF
P 9350 4700
F 0 "D39" V 9388 4583 50  0000 R CNN
F 1 "LED" V 9297 4583 50  0000 R CNN
F 2 "LED_THT:LED_D3.0mm" H 9350 4700 50  0001 C CNN
F 3 "~" H 9350 4700 50  0001 C CNN
	1    9350 4700
	0    -1   -1   0   
$EndComp
$Comp
L Device:LED D4
U 1 1 5C4419B6
P 6750 4700
F 0 "D4" V 6788 4583 50  0000 R CNN
F 1 "LED" V 6697 4583 50  0000 R CNN
F 2 "LED_THT:LED_D3.0mm" H 6750 4700 50  0001 C CNN
F 3 "~" H 6750 4700 50  0001 C CNN
	1    6750 4700
	0    -1   -1   0   
$EndComp
$Comp
L Device:LED D9
U 1 1 5C4419BD
P 7150 4700
F 0 "D9" V 7188 4583 50  0000 R CNN
F 1 "LED" V 7097 4583 50  0000 R CNN
F 2 "LED_THT:LED_D3.0mm" H 7150 4700 50  0001 C CNN
F 3 "~" H 7150 4700 50  0001 C CNN
	1    7150 4700
	0    -1   -1   0   
$EndComp
$Comp
L Device:LED D15
U 1 1 5C441B0B
P 7450 5100
F 0 "D15" V 7488 4983 50  0000 R CNN
F 1 "LED" V 7397 4983 50  0000 R CNN
F 2 "LED_THT:LED_D3.0mm" H 7450 5100 50  0001 C CNN
F 3 "~" H 7450 5100 50  0001 C CNN
	1    7450 5100
	0    -1   -1   0   
$EndComp
$Comp
L Device:LED D20
U 1 1 5C441B12
P 7850 5100
F 0 "D20" V 7888 4983 50  0000 R CNN
F 1 "LED" V 7797 4983 50  0000 R CNN
F 2 "LED_THT:LED_D3.0mm" H 7850 5100 50  0001 C CNN
F 3 "~" H 7850 5100 50  0001 C CNN
	1    7850 5100
	0    -1   -1   0   
$EndComp
$Comp
L Device:LED D25
U 1 1 5C441B19
P 8200 5100
F 0 "D25" V 8238 4983 50  0000 R CNN
F 1 "LED" V 8147 4983 50  0000 R CNN
F 2 "LED_THT:LED_D3.0mm" H 8200 5100 50  0001 C CNN
F 3 "~" H 8200 5100 50  0001 C CNN
	1    8200 5100
	0    -1   -1   0   
$EndComp
$Comp
L Device:LED D30
U 1 1 5C441B20
P 8600 5100
F 0 "D30" V 8638 4983 50  0000 R CNN
F 1 "LED" V 8547 4983 50  0000 R CNN
F 2 "LED_THT:LED_D3.0mm" H 8600 5100 50  0001 C CNN
F 3 "~" H 8600 5100 50  0001 C CNN
	1    8600 5100
	0    -1   -1   0   
$EndComp
$Comp
L Device:LED D35
U 1 1 5C441B27
P 8950 5100
F 0 "D35" V 8988 4983 50  0000 R CNN
F 1 "LED" V 8897 4983 50  0000 R CNN
F 2 "LED_THT:LED_D3.0mm" H 8950 5100 50  0001 C CNN
F 3 "~" H 8950 5100 50  0001 C CNN
	1    8950 5100
	0    -1   -1   0   
$EndComp
$Comp
L Device:LED D40
U 1 1 5C441B2E
P 9350 5100
F 0 "D40" V 9388 4983 50  0000 R CNN
F 1 "LED" V 9297 4983 50  0000 R CNN
F 2 "LED_THT:LED_D3.0mm" H 9350 5100 50  0001 C CNN
F 3 "~" H 9350 5100 50  0001 C CNN
	1    9350 5100
	0    -1   -1   0   
$EndComp
$Comp
L Device:LED D5
U 1 1 5C441B35
P 6750 5100
F 0 "D5" V 6788 4983 50  0000 R CNN
F 1 "LED" V 6697 4983 50  0000 R CNN
F 2 "LED_THT:LED_D3.0mm" H 6750 5100 50  0001 C CNN
F 3 "~" H 6750 5100 50  0001 C CNN
	1    6750 5100
	0    -1   -1   0   
$EndComp
$Comp
L Device:LED D10
U 1 1 5C441B3C
P 7150 5100
F 0 "D10" V 7188 4983 50  0000 R CNN
F 1 "LED" V 7097 4983 50  0000 R CNN
F 2 "LED_THT:LED_D3.0mm" H 7150 5100 50  0001 C CNN
F 3 "~" H 7150 5100 50  0001 C CNN
	1    7150 5100
	0    -1   -1   0   
$EndComp
$Comp
L Device:LED D11
U 1 1 5C441D4E
P 7450 3500
F 0 "D11" V 7488 3383 50  0000 R CNN
F 1 "LED" V 7397 3383 50  0000 R CNN
F 2 "LED_THT:LED_D3.0mm" H 7450 3500 50  0001 C CNN
F 3 "~" H 7450 3500 50  0001 C CNN
	1    7450 3500
	0    -1   -1   0   
$EndComp
$Comp
L Device:LED D16
U 1 1 5C441D55
P 7850 3500
F 0 "D16" V 7888 3383 50  0000 R CNN
F 1 "LED" V 7797 3383 50  0000 R CNN
F 2 "LED_THT:LED_D3.0mm" H 7850 3500 50  0001 C CNN
F 3 "~" H 7850 3500 50  0001 C CNN
	1    7850 3500
	0    -1   -1   0   
$EndComp
$Comp
L Device:LED D21
U 1 1 5C441D5C
P 8200 3500
F 0 "D21" V 8238 3383 50  0000 R CNN
F 1 "LED" V 8147 3383 50  0000 R CNN
F 2 "LED_THT:LED_D3.0mm" H 8200 3500 50  0001 C CNN
F 3 "~" H 8200 3500 50  0001 C CNN
	1    8200 3500
	0    -1   -1   0   
$EndComp
$Comp
L Device:LED D26
U 1 1 5C441D63
P 8600 3500
F 0 "D26" V 8638 3383 50  0000 R CNN
F 1 "LED" V 8547 3383 50  0000 R CNN
F 2 "LED_THT:LED_D3.0mm" H 8600 3500 50  0001 C CNN
F 3 "~" H 8600 3500 50  0001 C CNN
	1    8600 3500
	0    -1   -1   0   
$EndComp
$Comp
L Device:LED D31
U 1 1 5C441D6A
P 8950 3500
F 0 "D31" V 8988 3383 50  0000 R CNN
F 1 "LED" V 8897 3383 50  0000 R CNN
F 2 "LED_THT:LED_D3.0mm" H 8950 3500 50  0001 C CNN
F 3 "~" H 8950 3500 50  0001 C CNN
	1    8950 3500
	0    -1   -1   0   
$EndComp
$Comp
L Device:LED D36
U 1 1 5C441D71
P 9350 3500
F 0 "D36" V 9388 3383 50  0000 R CNN
F 1 "LED" V 9297 3383 50  0000 R CNN
F 2 "LED_THT:LED_D3.0mm" H 9350 3500 50  0001 C CNN
F 3 "~" H 9350 3500 50  0001 C CNN
	1    9350 3500
	0    -1   -1   0   
$EndComp
$Comp
L Device:LED D1
U 1 1 5C441D78
P 6750 3500
F 0 "D1" V 6788 3383 50  0000 R CNN
F 1 "LED" V 6697 3383 50  0000 R CNN
F 2 "LED_THT:LED_D3.0mm" H 6750 3500 50  0001 C CNN
F 3 "~" H 6750 3500 50  0001 C CNN
	1    6750 3500
	0    -1   -1   0   
$EndComp
$Comp
L Device:LED D6
U 1 1 5C441D7F
P 7150 3500
F 0 "D6" V 7188 3383 50  0000 R CNN
F 1 "LED" V 7097 3383 50  0000 R CNN
F 2 "LED_THT:LED_D3.0mm" H 7150 3500 50  0001 C CNN
F 3 "~" H 7150 3500 50  0001 C CNN
	1    7150 3500
	0    -1   -1   0   
$EndComp
Wire Wire Line
	6950 1050 6950 3350
Wire Wire Line
	6950 4950 6750 4950
Wire Wire Line
	6750 4550 6950 4550
Connection ~ 6950 4550
Wire Wire Line
	6950 4550 6950 4950
Wire Wire Line
	6750 4150 6950 4150
Connection ~ 6950 4150
Wire Wire Line
	6950 4150 6950 4550
Wire Wire Line
	6750 3750 6950 3750
Connection ~ 6950 3750
Wire Wire Line
	6950 3750 6950 4150
Wire Wire Line
	6750 3350 6950 3350
Connection ~ 6950 3350
Wire Wire Line
	6950 3350 6950 3750
Wire Wire Line
	8700 1150 8650 1150
Wire Wire Line
	7350 1150 7350 3350
Wire Wire Line
	7350 4950 7150 4950
Wire Wire Line
	7150 4550 7350 4550
Connection ~ 7350 4550
Wire Wire Line
	7350 4550 7350 4950
Wire Wire Line
	7150 4150 7350 4150
Connection ~ 7350 4150
Wire Wire Line
	7350 4150 7350 4550
Wire Wire Line
	7150 3750 7350 3750
Connection ~ 7350 3750
Wire Wire Line
	7350 3750 7350 4150
Wire Wire Line
	7150 3350 7350 3350
Connection ~ 7350 3350
Wire Wire Line
	7350 3350 7350 3750
Wire Wire Line
	7650 4950 7650 4550
Wire Wire Line
	7450 4950 7650 4950
Wire Wire Line
	7450 4550 7650 4550
Connection ~ 7650 4550
Wire Wire Line
	7650 4550 7650 4150
Wire Wire Line
	7450 4150 7650 4150
Connection ~ 7650 4150
Wire Wire Line
	7650 4150 7650 3750
Wire Wire Line
	7450 3750 7650 3750
Connection ~ 7650 3750
Wire Wire Line
	7650 3750 7650 3350
Wire Wire Line
	7450 3350 7650 3350
Connection ~ 7650 3350
Wire Wire Line
	7650 3350 7650 1250
Wire Wire Line
	8050 1350 8050 3350
Wire Wire Line
	8050 4950 7850 4950
Wire Wire Line
	7850 4550 8050 4550
Connection ~ 8050 4550
Wire Wire Line
	8050 4550 8050 4950
Wire Wire Line
	7850 4150 8050 4150
Connection ~ 8050 4150
Wire Wire Line
	8050 4150 8050 4550
Wire Wire Line
	7850 3750 8050 3750
Connection ~ 8050 3750
Wire Wire Line
	8050 3750 8050 4150
Wire Wire Line
	7850 3350 8050 3350
Connection ~ 8050 3350
Wire Wire Line
	8050 3350 8050 3750
Wire Wire Line
	8150 1450 8150 3350
Wire Wire Line
	8150 3350 8200 3350
Wire Wire Line
	8200 3350 8350 3350
Wire Wire Line
	8350 3350 8350 3750
Wire Wire Line
	8350 4950 8200 4950
Connection ~ 8200 3350
Wire Wire Line
	8200 3750 8350 3750
Connection ~ 8350 3750
Wire Wire Line
	8200 4550 8350 4550
Connection ~ 8350 4550
Wire Wire Line
	8350 4550 8350 4950
Wire Wire Line
	8250 1550 8250 3250
Wire Wire Line
	8250 3250 8600 3250
Wire Wire Line
	8600 3250 8600 3350
Wire Wire Line
	8600 3350 8750 3350
Wire Wire Line
	8750 3350 8750 3750
Wire Wire Line
	8750 4950 8600 4950
Connection ~ 8600 3350
Wire Wire Line
	8600 3750 8750 3750
Connection ~ 8750 3750
Wire Wire Line
	8750 3750 8750 4150
Wire Wire Line
	8600 4150 8750 4150
Connection ~ 8750 4150
Wire Wire Line
	8750 4150 8750 4550
Wire Wire Line
	8600 4550 8750 4550
Connection ~ 8750 4550
Wire Wire Line
	8750 4550 8750 4950
Wire Wire Line
	6950 1050 8650 1050
Wire Wire Line
	7650 1250 8650 1250
Wire Wire Line
	8050 1350 8650 1350
Wire Wire Line
	8150 1450 8650 1450
Wire Wire Line
	8250 1550 8650 1550
Wire Wire Line
	8650 1650 8350 1650
Wire Wire Line
	8350 1650 8350 3150
Wire Wire Line
	8350 3150 8950 3150
Wire Wire Line
	8950 3150 8950 3350
Wire Wire Line
	8950 3350 9100 3350
Wire Wire Line
	9100 3350 9100 3750
Wire Wire Line
	9100 4950 8950 4950
Connection ~ 8950 3350
Wire Wire Line
	8950 4550 9100 4550
Connection ~ 9100 4550
Wire Wire Line
	9100 4550 9100 4950
Wire Wire Line
	8950 4150 9100 4150
Connection ~ 9100 4150
Wire Wire Line
	9100 4150 9100 4550
Wire Wire Line
	8950 3750 9100 3750
Connection ~ 9100 3750
Wire Wire Line
	9100 3750 9100 4150
Wire Wire Line
	8650 1750 8400 1750
Wire Wire Line
	8400 1750 8400 3100
Wire Wire Line
	8400 3100 9350 3100
Wire Wire Line
	9350 3100 9350 3350
Wire Wire Line
	9350 3350 9500 3350
Wire Wire Line
	9500 3350 9500 3750
Wire Wire Line
	9500 3750 9350 3750
Connection ~ 9350 3350
Wire Wire Line
	9350 4150 9500 4150
Wire Wire Line
	9500 4150 9500 3750
Connection ~ 9500 3750
Wire Wire Line
	9350 4550 9500 4550
Wire Wire Line
	9500 4550 9500 4150
Connection ~ 9500 4150
Wire Wire Line
	9350 4950 9500 4950
Wire Wire Line
	9500 4950 9500 4550
Connection ~ 9500 4550
Wire Wire Line
	9350 3650 10750 3650
Wire Wire Line
	10750 3650 10750 1050
Wire Wire Line
	10750 1050 9750 1050
Wire Wire Line
	10650 4050 10650 1150
Wire Wire Line
	10650 1150 9750 1150
Wire Wire Line
	9350 4450 10550 4450
Wire Wire Line
	10550 4450 10550 1250
Wire Wire Line
	10550 1250 9750 1250
Wire Wire Line
	9350 4850 10450 4850
Wire Wire Line
	10450 4850 10450 1350
Wire Wire Line
	10450 1350 9750 1350
Wire Wire Line
	9350 5250 10350 5250
Wire Wire Line
	10350 5250 10350 1450
Wire Wire Line
	10350 1450 9750 1450
Wire Wire Line
	9350 3650 8950 3650
Connection ~ 9350 3650
Wire Wire Line
	8950 3650 8600 3650
Connection ~ 8950 3650
Connection ~ 8600 3650
Wire Wire Line
	7850 3650 8200 3650
Connection ~ 8200 3650
Wire Wire Line
	8200 3650 8600 3650
Wire Wire Line
	7850 3650 7450 3650
Connection ~ 7850 3650
Connection ~ 7450 3650
Wire Wire Line
	7450 3650 7150 3650
Wire Wire Line
	6750 3650 7150 3650
Connection ~ 7150 3650
Wire Wire Line
	6750 4050 7150 4050
Wire Wire Line
	7150 4050 7450 4050
Connection ~ 7150 4050
Wire Wire Line
	7450 4050 7850 4050
Connection ~ 7450 4050
Wire Wire Line
	8200 4050 8600 4050
Connection ~ 8200 4050
Wire Wire Line
	8950 4050 8600 4050
Connection ~ 8600 4050
Wire Wire Line
	8950 4050 9350 4050
Connection ~ 8950 4050
Wire Wire Line
	6750 4450 7150 4450
Wire Wire Line
	7450 4450 7150 4450
Connection ~ 7150 4450
Wire Wire Line
	7450 4450 7850 4450
Connection ~ 7450 4450
Wire Wire Line
	7850 4450 8200 4450
Connection ~ 7850 4450
Wire Wire Line
	8200 4450 8600 4450
Connection ~ 8200 4450
Wire Wire Line
	8600 4450 8950 4450
Connection ~ 8600 4450
Wire Wire Line
	8950 4450 9350 4450
Connection ~ 8950 4450
Connection ~ 9350 4450
Wire Wire Line
	7150 4850 7450 4850
Connection ~ 7150 4850
Wire Wire Line
	7450 4850 7850 4850
Connection ~ 7450 4850
Wire Wire Line
	7850 4850 8200 4850
Connection ~ 7850 4850
Wire Wire Line
	8200 4850 8600 4850
Connection ~ 8200 4850
Wire Wire Line
	8600 4850 8950 4850
Connection ~ 8600 4850
Wire Wire Line
	9350 4850 8950 4850
Connection ~ 9350 4850
Connection ~ 8950 4850
Wire Wire Line
	6750 5250 7150 5250
Connection ~ 7150 5250
Connection ~ 7450 5250
Wire Wire Line
	7450 5250 7150 5250
Wire Wire Line
	8200 5250 7850 5250
Wire Wire Line
	7450 5250 7850 5250
Connection ~ 7850 5250
Wire Wire Line
	8600 5250 8200 5250
Connection ~ 8200 5250
Connection ~ 8600 5250
Wire Wire Line
	8600 5250 8950 5250
Connection ~ 9350 5250
Connection ~ 8950 5250
Wire Wire Line
	8950 5250 9350 5250
Wire Wire Line
	6850 1900 6850 850 
Wire Wire Line
	6850 850  8550 850 
Wire Wire Line
	3450 1900 6850 1900
Wire Wire Line
	3450 1800 6750 1800
Wire Wire Line
	6750 1800 6750 2400
Wire Wire Line
	6750 2400 10250 2400
Wire Wire Line
	10250 2400 10250 2150
Wire Wire Line
	10250 2150 9750 2150
Wire Wire Line
	6650 1700 6650 2500
Wire Wire Line
	6650 2500 10300 2500
Wire Wire Line
	10300 2500 10300 2050
Wire Wire Line
	10300 2050 9750 2050
Wire Wire Line
	3450 1700 6650 1700
$Comp
L Connector:AudioJack2 J1
U 1 1 5C53A932
P 5000 5300
F 0 "J1" H 4820 5375 50  0000 R CNN
F 1 "AudioJack2" H 4820 5284 50  0000 R CNN
F 2 "Connector_Audio:Jack_3.5mm_QingPu_WQP-PJ398SM_Vertical_CircularHoles" H 5000 5300 50  0001 C CNN
F 3 "~" H 5000 5300 50  0001 C CNN
	1    5000 5300
	-1   0    0    -1  
$EndComp
$Comp
L Connector:AudioJack2 J2
U 1 1 5C53AA88
P 5000 5650
F 0 "J2" H 4820 5725 50  0000 R CNN
F 1 "AudioJack2" H 4820 5634 50  0000 R CNN
F 2 "Connector_Audio:Jack_3.5mm_QingPu_WQP-PJ398SM_Vertical_CircularHoles" H 5000 5650 50  0001 C CNN
F 3 "~" H 5000 5650 50  0001 C CNN
	1    5000 5650
	-1   0    0    -1  
$EndComp
$Comp
L Connector:AudioJack2 J3
U 1 1 5C53AB28
P 5000 6000
F 0 "J3" H 4820 6075 50  0000 R CNN
F 1 "AudioJack2" H 4820 5984 50  0000 R CNN
F 2 "Connector_Audio:Jack_3.5mm_QingPu_WQP-PJ398SM_Vertical_CircularHoles" H 5000 6000 50  0001 C CNN
F 3 "~" H 5000 6000 50  0001 C CNN
	1    5000 6000
	-1   0    0    -1  
$EndComp
$Comp
L Connector:AudioJack2 J4
U 1 1 5C53ABB4
P 5000 6400
F 0 "J4" H 4820 6475 50  0000 R CNN
F 1 "AudioJack2" H 4820 6384 50  0000 R CNN
F 2 "Connector_Audio:Jack_3.5mm_QingPu_WQP-PJ398SM_Vertical_CircularHoles" H 5000 6400 50  0001 C CNN
F 3 "~" H 5000 6400 50  0001 C CNN
	1    5000 6400
	-1   0    0    -1  
$EndComp
Wire Wire Line
	3450 3600 4350 3600
Wire Wire Line
	4350 3600 4350 5300
Wire Wire Line
	3450 3700 4250 3700
Wire Wire Line
	4250 3700 4250 5650
Wire Wire Line
	3450 3800 4150 3800
Wire Wire Line
	4150 3800 4150 6000
Wire Wire Line
	4050 3900 4050 6400
Wire Wire Line
	3450 3900 4050 3900
$Comp
L Connector:AudioJack2 J5
U 1 1 5C5C596D
P 4850 4950
F 0 "J5" H 4670 5025 50  0000 R CNN
F 1 "AudioJack2" H 4670 4934 50  0000 R CNN
F 2 "Connector_Audio:Jack_3.5mm_QingPu_WQP-PJ398SM_Vertical_CircularHoles" H 4850 4950 50  0001 C CNN
F 3 "~" H 4850 4950 50  0001 C CNN
	1    4850 4950
	-1   0    0    -1  
$EndComp
Wire Wire Line
	3450 3500 4500 3500
Wire Wire Line
	4500 3500 4500 4950
Wire Wire Line
	4500 4950 4650 4950
$Comp
L Switch:SW_SPDT SW2
U 1 1 5C5CF27A
P 4100 1250
F 0 "SW2" H 4100 1535 50  0000 C CNN
F 1 "SW_SPDT" H 4100 1444 50  0000 C CNN
F 2 "sequencer:SPDT_synth" H 4100 1250 50  0001 C CNN
F 3 "" H 4100 1250 50  0001 C CNN
	1    4100 1250
	-1   0    0    -1  
$EndComp
Wire Wire Line
	3450 1500 3450 1150
Wire Wire Line
	3450 1150 3900 1150
Wire Wire Line
	3450 1600 3800 1600
Wire Wire Line
	3800 1350 3900 1350
$Comp
L Device:Crystal Y1
U 1 1 5C5F590E
P 4100 2150
F 0 "Y1" V 4054 2281 50  0000 L CNN
F 1 "Crystal" V 4145 2281 50  0000 L CNN
F 2 "Crystal:Crystal_HC49-U_Vertical" H 4100 2150 50  0001 C CNN
F 3 "~" H 4100 2150 50  0001 C CNN
	1    4100 2150
	0    1    1    0   
$EndComp
Wire Wire Line
	3900 2100 3900 2000
Wire Wire Line
	3900 2000 4100 2000
Wire Wire Line
	3450 2200 3500 2200
Wire Wire Line
	3500 2200 3500 2300
Wire Wire Line
	3500 2300 4100 2300
Wire Wire Line
	3450 2100 3900 2100
Wire Wire Line
	2850 950  2950 950 
Wire Wire Line
	2950 950  2950 1200
Connection ~ 2850 950 
Wire Wire Line
	2250 1500 2250 950 
Connection ~ 2250 950 
Wire Wire Line
	2250 950  2850 950 
Wire Wire Line
	2850 4200 2700 4200
Wire Wire Line
	3800 1350 3800 1600
Wire Wire Line
	2700 4200 2700 4850
Connection ~ 2700 4200
Wire Wire Line
	2700 4200 2600 4200
Wire Wire Line
	2600 4200 2600 5200
Wire Wire Line
	2600 5200 4500 5200
Connection ~ 2600 4200
Wire Wire Line
	2600 4200 2500 4200
Wire Wire Line
	2500 4200 2500 5550
Wire Wire Line
	2500 5550 4500 5550
Connection ~ 2500 4200
Wire Wire Line
	2500 4200 2400 4200
Wire Wire Line
	2400 4200 2400 5900
Wire Wire Line
	2400 5900 4500 5900
Connection ~ 2400 4200
Wire Wire Line
	2400 4200 2300 4200
Wire Wire Line
	2300 4200 2300 6300
Wire Wire Line
	2300 6300 4500 6300
Connection ~ 2300 4200
Wire Wire Line
	2300 4200 2100 4200
$Comp
L Switch:SW_SPST SW1
U 1 1 5C4D6178
P 3650 2000
F 0 "SW1" H 3650 2235 50  0000 C CNN
F 1 "SW_SPST" H 3650 2144 50  0000 C CNN
F 2 "Button_Switch_THT:SW_PUSH_6mm_H5mm" H 3650 2000 50  0001 C CNN
F 3 "" H 3650 2000 50  0001 C CNN
	1    3650 2000
	1    0    0    -1  
$EndComp
Wire Wire Line
	2700 4850 4650 4850
Wire Wire Line
	6750 4850 7150 4850
Wire Wire Line
	4300 950  4300 1250
Connection ~ 2950 950 
Wire Wire Line
	4300 950  4500 950 
Wire Wire Line
	6600 950  6600 1600
Wire Wire Line
	6600 1600 7850 1600
Wire Wire Line
	7850 1600 7850 1950
Wire Wire Line
	7850 1950 8650 1950
Connection ~ 4300 950 
Wire Wire Line
	2100 4200 2100 6750
Wire Wire Line
	2100 6750 5550 6750
Wire Wire Line
	6400 6750 6400 2300
Wire Wire Line
	6400 2050 8650 2050
Connection ~ 2100 4200
Wire Wire Line
	2100 4200 1700 4200
Wire Wire Line
	8650 2150 8650 2050
Connection ~ 8650 2050
Wire Wire Line
	3850 2000 3850 1950
Wire Wire Line
	3850 1950 4500 1950
Wire Wire Line
	4500 1950 4500 950 
Connection ~ 4500 950 
Wire Wire Line
	4500 950  4600 950 
$Comp
L Device:Rotary_Encoder_Switch SW3
U 1 1 5C4CF47A
P 4350 3200
F 0 "SW3" H 4350 3567 50  0000 C CNN
F 1 "Rotary_Encoder_Switch" H 4350 3476 50  0000 C CNN
F 2 "Rotary_Encoder:RotaryEncoder_Alps_EC12E-Switch_Vertical_H20mm" H 4200 3360 50  0001 C CNN
F 3 "~" H 4350 3460 50  0001 C CNN
	1    4350 3200
	1    0    0    -1  
$EndComp
Wire Wire Line
	3450 3300 3700 3300
Wire Wire Line
	3700 3300 3700 3100
Wire Wire Line
	3700 3100 4050 3100
Wire Wire Line
	3450 3400 4050 3400
Wire Wire Line
	4050 3400 4050 3300
Wire Wire Line
	2850 4200 3850 4200
Wire Wire Line
	3850 4200 3850 3200
Wire Wire Line
	3850 3200 4050 3200
Connection ~ 2850 4200
Wire Wire Line
	3450 3200 3650 3200
Wire Wire Line
	3650 3200 3650 2850
Wire Wire Line
	3650 2850 4650 2850
Wire Wire Line
	4650 2850 4650 3100
Wire Wire Line
	4650 3300 4750 3300
Wire Wire Line
	4750 3300 4750 950 
Connection ~ 4750 950 
Wire Wire Line
	4750 950  6600 950 
Wire Wire Line
	7350 1150 8650 1150
Connection ~ 8650 1150
$Comp
L Device:R R2
U 1 1 5C59D069
P 9900 1950
F 0 "R2" V 9693 1950 50  0000 C CNN
F 1 "9.53K" V 9784 1950 50  0000 C CNN
F 2 "Resistor_THT:R_Axial_DIN0204_L3.6mm_D1.6mm_P2.54mm_Vertical" V 9830 1950 50  0001 C CNN
F 3 "~" H 9900 1950 50  0001 C CNN
	1    9900 1950
	0    1    1    0   
$EndComp
Wire Wire Line
	10050 1950 10050 650 
Wire Wire Line
	10050 650  8550 650 
Wire Wire Line
	8550 650  8550 850 
Connection ~ 8550 850 
Wire Wire Line
	8550 850  8650 850 
Wire Wire Line
	2950 950  4300 950 
Wire Wire Line
	4500 2300 4500 2000
Wire Wire Line
	4500 2300 6400 2300
Connection ~ 6400 2300
Wire Wire Line
	6400 2300 6400 2050
$Comp
L Device:C C3
U 1 1 5C617716
P 4300 2000
F 0 "C3" V 4048 2000 50  0000 C CNN
F 1 "22pF" V 4139 2000 50  0000 C CNN
F 2 "Capacitor_THT:C_Rect_L4.6mm_W2.0mm_P2.50mm_MKS02_FKP02" H 4338 1850 50  0001 C CNN
F 3 "~" H 4300 2000 50  0001 C CNN
	1    4300 2000
	0    1    1    0   
$EndComp
$Comp
L Device:C C4
U 1 1 5C617887
P 4300 2300
F 0 "C4" V 4048 2300 50  0000 C CNN
F 1 "22pF" V 4139 2300 50  0000 C CNN
F 2 "Capacitor_THT:C_Rect_L4.6mm_W2.0mm_P2.50mm_MKS02_FKP02" H 4338 2150 50  0001 C CNN
F 3 "~" H 4300 2300 50  0001 C CNN
	1    4300 2300
	0    1    1    0   
$EndComp
Wire Wire Line
	4100 2300 4150 2300
Connection ~ 4100 2300
Wire Wire Line
	4450 2300 4500 2300
Connection ~ 4500 2300
Wire Wire Line
	4100 2000 4150 2000
Connection ~ 4100 2000
Wire Wire Line
	4500 2000 4450 2000
Wire Wire Line
	1400 950  1400 1050
Wire Wire Line
	1400 1350 1700 1350
Wire Wire Line
	1700 1250 1700 1350
Connection ~ 1700 1350
$Comp
L Device:CP C1
U 1 1 5C6EACC2
P 1400 1200
F 0 "C1" H 1518 1246 50  0000 L CNN
F 1 "10uF" H 1518 1155 50  0000 L CNN
F 2 "Capacitor_THT:CP_Radial_D4.0mm_P2.00mm" H 1438 1050 50  0001 C CNN
F 3 "~" H 1400 1200 50  0001 C CNN
	1    1400 1200
	1    0    0    -1  
$EndComp
$Comp
L Device:CP C2
U 1 1 5C700804
P 2050 1200
F 0 "C2" H 2168 1246 50  0000 L CNN
F 1 "10uF" H 2168 1155 50  0000 L CNN
F 2 "Capacitor_THT:CP_Radial_D4.0mm_P2.00mm" H 2088 1050 50  0001 C CNN
F 3 "~" H 2050 1200 50  0001 C CNN
	1    2050 1200
	1    0    0    -1  
$EndComp
Wire Wire Line
	2050 1050 2050 950 
Wire Wire Line
	2000 950  2050 950 
Connection ~ 2050 950 
Wire Wire Line
	2050 950  2250 950 
Wire Wire Line
	3450 3000 3550 3000
Wire Wire Line
	3550 3000 3550 2700
Wire Wire Line
	3550 2700 4000 2700
$Comp
L Device:R R1
U 1 1 5C7719A0
P 4150 2700
F 0 "R1" V 3943 2700 50  0000 C CNN
F 1 "10K" V 4034 2700 50  0000 C CNN
F 2 "Resistor_THT:R_Axial_DIN0204_L3.6mm_D1.6mm_P2.54mm_Vertical" V 4080 2700 50  0001 C CNN
F 3 "~" H 4150 2700 50  0001 C CNN
	1    4150 2700
	0    1    1    0   
$EndComp
Wire Wire Line
	4300 2700 4600 2700
Wire Wire Line
	4600 2700 4600 950 
Connection ~ 4600 950 
Wire Wire Line
	4600 950  4750 950 
Connection ~ 4600 2700
$Comp
L Switch:SW_SPST SW4
U 1 1 5C7A0F6E
P 5350 2700
F 0 "SW4" H 5350 2935 50  0000 C CNN
F 1 "SW_SPST" H 5350 2844 50  0000 C CNN
F 2 "Button_Switch_THT:SW_PUSH_6mm_H5mm" H 5350 2700 50  0001 C CNN
F 3 "" H 5350 2700 50  0001 C CNN
	1    5350 2700
	1    0    0    -1  
$EndComp
Wire Wire Line
	4600 2700 5150 2700
Wire Wire Line
	5550 2700 5550 6750
Connection ~ 5550 6750
Wire Wire Line
	5550 6750 6400 6750
Wire Wire Line
	1700 1350 2050 1350
Wire Wire Line
	8350 3750 8350 4150
Wire Wire Line
	8200 4150 8350 4150
Connection ~ 8350 4150
Wire Wire Line
	8350 4150 8350 4550
Wire Wire Line
	7850 4050 8200 4050
Connection ~ 7850 4050
$Comp
L Sequencer-rescue:EURO_PWR_2x5-eurocad J7
U 1 1 5C4A3522
P 800 2200
F 0 "J7" V 694 2488 60  0000 L CNN
F 1 "EURO_PWR_2x5" V 800 2488 60  0000 L CNN
F 2 "Connector_PinHeader_1.00mm:PinHeader_2x05_P1.00mm_Vertical" V 906 2488 60  0000 L CNN
F 3 "" H 800 2200 60  0000 C CNN
	1    800  2200
	0    1    1    0   
$EndComp
Wire Wire Line
	1700 1350 1700 2950
Wire Wire Line
	1450 950  1400 950 
Wire Wire Line
	1000 950  1000 1750
Connection ~ 1400 950 
Wire Wire Line
	1400 950  1000 950 
Wire Wire Line
	900  2650 900  2950
Wire Wire Line
	900  2950 1700 2950
Connection ~ 1700 2950
Wire Wire Line
	1700 2950 1700 4200
$Comp
L Device:R R6
U 1 1 5C522C1F
P 4650 5200
F 0 "R6" V 4443 5200 50  0000 C CNN
F 1 "1K" V 4534 5200 50  0000 C CNN
F 2 "Resistor_THT:R_Axial_DIN0204_L3.6mm_D1.6mm_P2.54mm_Vertical" V 4580 5200 50  0001 C CNN
F 3 "~" H 4650 5200 50  0001 C CNN
	1    4650 5200
	0    1    1    0   
$EndComp
$Comp
L Device:R R3
U 1 1 5C522D70
P 4650 5550
F 0 "R3" V 4443 5550 50  0000 C CNN
F 1 "1K" V 4534 5550 50  0000 C CNN
F 2 "Resistor_THT:R_Axial_DIN0204_L3.6mm_D1.6mm_P2.54mm_Vertical" V 4580 5550 50  0001 C CNN
F 3 "~" H 4650 5550 50  0001 C CNN
	1    4650 5550
	0    1    1    0   
$EndComp
$Comp
L Device:R R4
U 1 1 5C522E9B
P 4650 5900
F 0 "R4" V 4443 5900 50  0000 C CNN
F 1 "1K" V 4534 5900 50  0000 C CNN
F 2 "Resistor_THT:R_Axial_DIN0204_L3.6mm_D1.6mm_P2.54mm_Vertical" V 4580 5900 50  0001 C CNN
F 3 "~" H 4650 5900 50  0001 C CNN
	1    4650 5900
	0    1    1    0   
$EndComp
$Comp
L Device:R R5
U 1 1 5C5230D4
P 4650 6300
F 0 "R5" V 4443 6300 50  0000 C CNN
F 1 "1K" V 4534 6300 50  0000 C CNN
F 2 "Resistor_THT:R_Axial_DIN0204_L3.6mm_D1.6mm_P2.54mm_Vertical" V 4580 6300 50  0001 C CNN
F 3 "~" H 4650 6300 50  0001 C CNN
	1    4650 6300
	0    1    1    0   
$EndComp
Wire Wire Line
	4350 5300 4800 5300
Wire Wire Line
	4250 5650 4800 5650
Wire Wire Line
	4150 6000 4800 6000
Wire Wire Line
	4050 6400 4800 6400
Wire Wire Line
	9350 4050 10650 4050
Connection ~ 9350 4050
$EndSCHEMATC
