(module SPDT_synth (layer F.Cu) (tedit 5C46B3E0)
  (fp_text reference REF** (at 0 0.5) (layer F.SilkS)
    (effects (font (size 1 1) (thickness 0.15)))
  )
  (fp_text value SPDT_synth (at 0 -0.5) (layer F.Fab)
    (effects (font (size 1 1) (thickness 0.15)))
  )
  (pad 1 thru_hole oval (at -5 -3) (size 3.5 4.5) (drill oval 2.5 3.5) (layers *.Cu *.Mask))
  (pad 2 thru_hole oval (at 1 -3) (size 3.5 4.5) (drill oval 2.5 3.5) (layers *.Cu *.Mask))
  (pad 3 thru_hole oval (at 7 -3) (size 3.5 4.5) (drill oval 2.5 3.5) (layers *.Cu *.Mask))
)
